…
``` r
building_permits %>%
  filter(property_use == "Dwelling Uses") %>%
  count(specific_use_category)
```

    ## # A tibble: 38 × 2
    ##    specific_use_category                                n
    ##    <chr>                                            <int>
    ##  1 1FD on Sites w/ More Than One Principal Building     1
    ##  2 1FD w/ Family Suite                                 10
    ##  3 2FD on Sites w/ Mult Principal Bldg                  3
    ##  4 Dwelling Unit                                      119
    ##  5 Dwelling Unit w/ Other Use                          15
    ##  6 Dwelling Unit, One-Family Dwelling                   2
    ##  7 Freehold Rowhouse                                    3
    ##  8 Infill                                               8
    ##  9 Infill Multiple Dwelling                             2
    ## 10 Infill One-Family Dwelling                          74
    ## # ℹ 28 more rows
…
    ## `summarise()` has grouped output by 'type_of_work'. You can override using the
    ## `.groups` argument.

``` r
PU_across_ToW
```

    ## # A tibble: 31 × 4
    ##    type_of_work          property_use                               n     freq
    ##    <chr>                 <chr>                                  <int>    <dbl>
    ##  1 Addition / Alteration Cultural/Recreational Uses                44 0.00700 
    ##  2 Addition / Alteration Cultural/Recreational Uses,Office Uses     5 0.000796
    ##  3 Addition / Alteration Dwelling Uses                           1194 0.190   
    ##  4 Addition / Alteration Dwelling Uses,Retail Uses                  9 0.00143 
    ##  5 Addition / Alteration Institutional Uses                        27 0.00430 
    ##  6 Addition / Alteration Manufacturing Uses                        29 0.00461 
    ##  7 Addition / Alteration Office Uses                              884 0.141   
    ##  8 Addition / Alteration Office Uses,Retail Uses                   22 0.00350 
    ##  9 Addition / Alteration Office Uses,Service Uses                   9 0.00143 
    ## 10 Addition / Alteration Parking Uses                               6 0.000955
    ## # ℹ 21 more rows
…
